[
  { "name": "Lập trình viên .NET" },
  { "name": "Lập trình viên Agile" },
  { "name": "Lập trình viên Android" },
  { "name": "Lập trình viên AngularJS" },
  { "name": "Lập trình viên ASP.NET" },
  { "name": "Lập trình viên Back End" },
  { "name": "Kỹ sư cầu nối" },
  { "name": "Chuyên viên phân tích nghiệp vụ" },
  { "name": "Lập trình viên C" },
  { "name": "Lập trình viên C#" },
  { "name": "Lập trình viên C++" },
  { "name": "Lập trình viên CSS" },
  { "name": "Quản trị cơ sở dữ liệu" },
  { "name": "Nhân viên thiết kế" },
  { "name": "Lập trình viên Django" },
  { "name": "Lập trình viên Drupal" },
  { "name": "Lập trình viên Embedded" },
  { "name": "Lập trình viên ERP" },
  { "name": "Lập trình viên Flash" },
  { "name": "Lập trình viên Front End" },
  { "name": "Lập trình viên Games" },
  { "name": "Lập trình viên HTML5" },
  { "name": "Lập trình viên iOS" },
  { "name": "Lập trình viên J2EE" },
  { "name": "Lập trình viên Java" },
  { "name": "Lập trình viên JavaScript" },
  { "name": "Lập trình viên JQuery" },
  { "name": "Lập trình viên JSON" },
  { "name": "Lập trình viên Linux" },
  { "name": "Lập trình viên Magento" },
  { "name": "Lập trình viên ứng dụng di động" },
  { "name": "Lập trình viên MVC" },
  { "name": "Lập trình viên MySQL" },
  { "name": "Lập trình viên NodeJS" },
  { "name": "Lập trình viên Objective C" },
  { "name": "Lập trình viên OOP" },
  { "name": "Lập trình viên Oracle" },
  { "name": "Lập trình viên PHP" },
  { "name": "Lập trình viên PostgreSql" },
  { "name": "Quản lý sản phẩm" },
  { "name": "Quản lý dự án" },
  { "name": "Lập trình viên Python" },
  { "name": "Lập trình viên Ruby" },
  { "name": "Lập trình viên Ruby on Rails" },
  { "name": "Lập trình viên Sharepoint" },
  { "name": "Lập trình viên phần mềm" },
  { "name": "Lập trình viên SQL" },
  { "name": "Lập trình viên UI-UX" },
  { "name": "Lập trình viên Unity" },
  { "name": "Lập trình viên Web" },
  { "name": "Lập trình viên Windows Phone" },
  { "name": "Lập trình viên Wordpress" },
  { "name": "Lập trình viên XML" },
  { "name": ".NET Web Developer" },
  { "name": "Android App Developer" },
  { "name": "AngularJS Web Developer" },
  { "name": "ASP.NET Web Developer" },
  { "name": "Back End Web Developer" },
  { "name": "C# Web Developer" },
  { "name": "CSS Web Developer" },
  { "name": "Django Web Developer" },
  { "name": "Drupal Web Developer" },
  { "name": "ERP Specialist" },
  { "name": "Front End Web Developer" },
  { "name": "Full Stack Developer" },
  { "name": "Full Stack Web Developer" },
  { "name": "Graphic Designer" },
  { "name": "iOS App Developer" },
  { "name": "Java Web Developer" },
  { "name": "Javascript Web Developer" },
  { "name": "Linux System Administrator" },
  { "name": "Magento Web Developer" },
  { "name": "Objective C App Developer" },
  { "name": "Oracle Database Administrator" },
  { "name": "Oracle DBA" },
  { "name": "PHP Web Developer" },
  { "name": "Postgresql Database Administrator" },
  { "name": "Product Owner" },
  { "name": "Python Web Developer" },
  { "name": "ReactJS Developer" },
  { "name": "Ruby On Rails Web Developer" },
  { "name": "SAP Consultant" },
  { "name": "Senior Android App Developer" },
  { "name": "Senior Full Stack Developer" },
  { "name": "Senior Full Stack Web Developer" },
  { "name": "Senior iOS App Developer" },
  { "name": "Senior Objective C App Developer" },
  { "name": "Senior Postgresql Database Administrator" },
  { "name": "Senior Product Owner" },
  { "name": "Senior Reactjs Developer" },
  { "name": "Senior SQL Administrator" },
  { "name": "Senior UX UI Designer" },
  { "name": "SQL Database Administrator" },
  { "name": "Unity Game Developer" },
  { "name": "UX UI Designer" },
  { "name": "Web Designer" },
  { "name": "Wordpress Web Developer" }
]
