Oct 14 08:37:06.777 HYPERVISOR: Release 0.2.17-x86/Windows (tag 2017072410)
Oct 14 08:37:06.779 HYPERVISOR: Started on IP = localhost, TCP port = 51601.
Oct 14 08:37:06.893 HYPERVISOR: exec_cmd: hypervisor version 
Oct 14 08:37:06.893 HYPERVISOR: exec_cmd: hypervisor working_dir C:\Users\nguye\GNS3\projects\vlan_dynamic\project-files\dynamips 
Oct 14 08:37:06.894 GENERAL: working_dir=C:\Users\nguye\GNS3\projects\vlan_dynamic\project-files\dynamips
Oct 14 08:37:06.895 HYPERVISOR: exec_cmd: hypervisor working_dir C:\Users\nguye\GNS3\projects\vlan_dynamic\project-files\dynamips\f5135d06-b230-4a8d-80ce-b6691a0dfa15 
Oct 14 08:37:06.897 GENERAL: working_dir=C:\Users\nguye\GNS3\projects\vlan_dynamic\project-files\dynamips\f5135d06-b230-4a8d-80ce-b6691a0dfa15
Oct 14 08:37:06.898 HYPERVISOR: exec_cmd: vm create R1 1 c3725 
Oct 14 08:37:06.900 VM: VM R1 created.
Oct 14 08:37:06.900 HYPERVISOR: exec_cmd: vm set_con_tcp_port R1 5004 
Oct 14 08:37:06.901 HYPERVISOR: exec_cmd: c3725 get_mac_addr R1 
Oct 14 08:37:06.901 HYPERVISOR: exec_cmd: vm set_disk0 R1 0 
Oct 14 08:37:06.902 HYPERVISOR: exec_cmd: vm set_exec_area R1 64 
Oct 14 08:37:06.903 HYPERVISOR: exec_cmd: vm get_status R1 
Oct 14 08:37:06.903 HYPERVISOR: exec_cmd: vm set_idle_pc R1 0x60bf8ba0 
Oct 14 08:37:06.905 HYPERVISOR: exec_cmd: vm set_ios R1 C:/Users/nguye/GNS3/images/IOS/c3725-adventerprisek9-mz124-15.image 
Oct 14 08:37:06.906 HYPERVISOR: exec_cmd: c3725 set_mac_addr R1 c201.27ac.0000 
Oct 14 08:37:06.907 HYPERVISOR: exec_cmd: vm set_nvram R1 256 
Oct 14 08:37:06.909 HYPERVISOR: exec_cmd: vm set_con_tcp_port R1 5004 
Oct 14 08:37:10.990 HYPERVISOR: exec_cmd: nio create_udp udp-d7bc5976-342b-4ca6-9d50-c2acae61f3d0 20032 127.0.0.1 20033 
Oct 14 08:37:11.252 HYPERVISOR: exec_cmd: vm slot_add_nio_binding R1 0 0 udp-d7bc5976-342b-4ca6-9d50-c2acae61f3d0 
Oct 14 08:37:11.254 HYPERVISOR: exec_cmd: vm get_status R1 
Oct 14 08:37:32.873 HYPERVISOR: exec_cmd: vm set_ghost_status R1 2 
Oct 14 08:37:32.874 HYPERVISOR: exec_cmd: vm set_ghost_file R1 C:\Users\nguye\GNS3\projects\vlan_dynamic\project-files\dynamips\c3725-adventerprisek9-mz124-15.image-128.ghost 
Oct 14 08:37:32.875 HYPERVISOR: exec_cmd: vm get_status R1 
Oct 14 08:37:32.876 HYPERVISOR: exec_cmd: vm set_config R1 configs\i1_startup-config.cfg 
Oct 14 08:37:32.877 HYPERVISOR: exec_cmd: vm start R1 
Oct 14 08:38:03.246 HYPERVISOR: exec_cmd: vm extract_config R1 
Oct 14 08:38:03.250 HYPERVISOR: exec_cmd: vm extract_config R1 
Oct 14 08:45:33.341 HYPERVISOR: exec_cmd: vm get_status R1 
Oct 14 08:45:33.341 HYPERVISOR: exec_cmd: vm stop R1 
Oct 14 08:45:33.430 VM: VM R1 shutdown.
Oct 14 08:45:33.430 HYPERVISOR: exec_cmd: vm extract_config R1 
Oct 14 08:45:38.354 HYPERVISOR: exec_cmd: vm get_status R1 
Oct 14 08:45:38.358 HYPERVISOR: exec_cmd: vm extract_config R1 
Oct 14 08:45:38.472 HYPERVISOR: exec_cmd: vm get_status R1 
Oct 14 08:45:38.473 HYPERVISOR: exec_cmd: vm extract_config R1 
Oct 14 08:45:38.476 HYPERVISOR: exec_cmd: vm delete R1 
Oct 14 08:45:38.476 VM: VM R1 destroyed.
Oct 14 08:45:38.478 HYPERVISOR: exec_cmd: hypervisor stop 
Oct 14 08:45:38.878 HYPERVISOR: Stopped.
Oct 14 08:45:38.878 GENERAL: reset done.
